<?xml version="1.0" encoding="utf-8"?>
<!-- Generator: Adobe Illustrator 19.1.1, SVG Export Plug-In . SVG Version: 6.00 Build 0)  -->
<svg version="1.1" id="Layer_1" xmlns="http://www.w3.org/2000/svg" xmlns:xlink="http://www.w3.org/1999/xlink" x="0px" y="0px"
	 viewBox="0 0 100 100" style="enable-background:new 0 0 100 100;" xml:space="preserve">
<style type="text/css">
	.st0{fill:#555555;}
	.st1{fill:none;stroke:#16478C;stroke-width:3;stroke-linecap:round;stroke-linejoin:round;stroke-miterlimit:10;}
	.st2{opacity:0.4;fill:#FFFFFF;}
	.st3{fill:none;stroke:#EE514E;stroke-width:3;stroke-linecap:round;stroke-linejoin:round;stroke-miterlimit:10;}
	.st4{fill:none;stroke:#FFFFFF;stroke-miterlimit:10;}
	.st5{fill:#16478C;}
	.st6{fill:none;stroke:#FFFFFF;stroke-width:3;stroke-linecap:round;stroke-linejoin:round;stroke-miterlimit:10;}
	.st7{fill:none;stroke:#555555;stroke-width:0.5;stroke-miterlimit:10;}
	.st8{fill:#16478C;}
	.st9{fill:#16478C;}
	.st10{fill:none;stroke:#555555;stroke-miterlimit:10;}
	.st11{fill:#FFFFFF;}
	.st12{fill:none;stroke:#555555;stroke-width:3;stroke-linecap:round;stroke-linejoin:round;stroke-miterlimit:10;}
</style>
<g>
	<path class="st8" d="M83.6,50.2c0,7,0.1,14,0,21c-0.1,7.9-4.4,12.4-12.4,12.4c-14.1,0.1-28.3,0.1-42.4,0
		c-7.6-0.1-12.3-4.5-12.3-12.1c-0.1-14.3-0.1-28.6,0-42.9c0.1-7.6,4.7-12.1,12.2-12.2c14.3-0.1,28.6-0.1,42.9,0
		c7.6,0.1,11.9,4.6,12,12.3C83.7,35.9,83.6,43.1,83.6,50.2z M49.9,75.5c6.8,0,13.6,0,20.5,0c4.4,0,5.2-0.7,5.2-4.8
		c0.1-13.8,0-27.6,0.1-41.4c0-3.3-1.4-4.9-4.8-4.9c-13.8,0-27.6-0.1-41.4,0c-4.1,0-4.9,0.9-4.9,5.1c-0.1,13.6-0.1,27.3,0,40.9
		c0,4.2,0.8,5,4.9,5C36.3,75.6,43.1,75.5,49.9,75.5z"/>
	<path class="st8" d="M68.9,41.4c-8.2,8.2-16.3,16.3-24,24c-4.3-4.1-8.8-8.6-13.9-13.5c1.5-1.3,3.2-2.8,5.1-4.5
		c2.7,2.6,5.5,5.2,8.6,8.2c6.4-6.6,12.7-13,19.6-20.2C66.2,37.8,67.6,39.6,68.9,41.4z"/>
</g>
</svg>
